{
  "manifest": {
    "publishingInformation": {
      "locales": {
        "de-DE": {
          "summary": "Kommt noch",
          "examplePhrases": [
            "Alexa, starte Flunkern",
            "Alexa, öffne Flunkern"
          ],
          "keywords": [
            "Spiel",
            "Games",
            "Unterhaltung",
            "Wissen",
            "Raten",
            "Ratespiel",
            "Trivia",
            "Fragen",
            "Antworten"
          ],
          "name": "Flunkern",
          "smallIconUri": "https://s3.amazonaws.com/CAPS-SSE/echo_developer/cf2c/5bdf4a009d7246abb706d6a7bc4e3fba/APP_ICON?versionId=.mrXLcLZTKI7455Nj0N8erABO8qTdjxH&AWSAccessKeyId=AKIAJFEYRBGIHK2BBYKA&Expires=1542887890&Signature=oAwReoHG%2Bw4ZUg6RYne9C8xcoeo%3D",
          "description": "Kommt noch",
          "largeIconUri": "https://s3.amazonaws.com/CAPS-SSE/echo_developer/4ee6/8b87f0e2aa7340daae2e3a2cd7a03efa/APP_ICON_LARGE?versionId=A1ske6o8UrSEKpFnIKR9bKresOUKu42V&AWSAccessKeyId=AKIAJFEYRBGIHK2BBYKA&Expires=1542887890&Signature=HjYUNmAokbMlZOAsXGJhhDg%2BSEo%3D"
        }
      },
      "isAvailableWorldwide": true,
      "testingInstructions": "Keine Besonderheiten",
      "category": "KNOWLEDGE_AND_TRIVIA",
      "distributionCountries": [],
      "gadgetSupport": {
        "maxGadgetButtons": 1,
        "numPlayersMax": 1,
        "minGadgetButtons": 1,
        "requirement": "OPTIONAL",
        "numPlayersMin": 1
      }
    },
    "apis": {
      "custom": {
        "endpoint": {
          "sourceDir": ".\\lambda\\eu-west-1_Flunkern"
        },
        "interfaces": [
          {
            "type": "RENDER_TEMPLATE",
            "minimumTemplateVersion": "1.0"
          },
          {
            "type": "GAME_ENGINE"
          },
          {
            "type": "GADGET_CONTROLLER"
          }
        ]
      }
    },
    "manifestVersion": "1.0",
    "privacyAndCompliance": {
      "allowsPurchases": false,
      "locales": {
        "de-DE": {
          "termsOfUseUrl": "https://nordicskills.de/#impressum",
          "privacyPolicyUrl": "https://nordicskills.de/#impressum"
        }
      },
      "isExportCompliant": true,
      "containsAds": false,
      "isChildDirected": false,
      "usesPersonalInfo": false
    }
  }
}
