﻿[
    {
        "answers": [
            "harry potter"
],
        "hints": [
            "Ich bin ein Junge.",
            "Ich lebe zum Teil im Großbritannien.",
            "Mein Haustier ist eine weiße Eule.",
            "Ich kann in der Winkelgasse in London einkaufen.",
			"Ich reite beim Sport auf einem Besen.",
			"Ich verstehe die Sprache der Schlangen.",
			"Mein bester Freund hatte einmal fürchterlich Ärger, weil wir mit dem Auto seiner Eltern am helllichten Tag am Himmel gesehen wurden.",
			"Wenn ich mal zu Hause bin, lebe ich bei meiner Muggel-Tante und ihrem Mann.",
			"Ich gehe in Hogwarts zur Schule.",
			"Ich bin ein Zauberer. "
        ]
    },
    {
        "answers": [
            "pippi langstrumpf",
            "pippi"
],
        "hints": [
            "Ich bin ein Mädchen.",
            "Über mich wird in über fünfzig Sprachen erzählt.",
            "Ich bin neun Jahre alt.",
			"Meine Mutter ist tot und mein Vater ein König.",
			"Ich komme aus Schweden.",
			"Ich habe rote Haare, die ich immer zu Zöpfen geflochten trage.",
			"Tommy und Annika sind meine besten Freunde.",
			"Ich habe insgesamt fünf Vornamen. Rollgardina und Pfefferminz sind zwei davon.",
			"Ich habe sogar ein eigenes Pferd, das <say-as interpret-as='interjection'>Kleiner Onkel</say-as> heißt, und einen Affen mit dem Namen <say-as interpret-as='interjection'>Herr Nilsson</say-as>.",
			"Ich wohne in der Villa Kunterbunt. "
		]
    },
	{
        "answers": [
            "micky maus"
],
        "hints": [
            "Ich bin männlich und habe eine schwarze Haut.",
            "Ich bin nicht groß, bin aber in der ganzen Welt bekannt.",
            "Ich trage meistens eine rote Hose und weiße Handschuhe.",
			"Meine Schuhe sind gelb.",
			"Ich bin kein Mensch.",
			"Ich habe große Ohren.",
			"Ich bin eine bekannte Comicfigur.",
			"Meine Freundin heißt Minnie.",
			"Pluto ist mein Hund.",
			"Ich bin eine Maus.Walt Disney hat mich erfunden. "
		]
    },
	{
        "answers": [
            "garfield"
],
        "hints": [
            "Ich wurde in einem italienischen Restaurant geboren.",
            "Montag ist mein absoluter Pechtag.",
            "Ich bin kein Mensch.",
			"Ich liebe es, den Postboten zu ärgern.",
			"Ich bin ein Kater.",
			"Manche sagen ich sei faul!",
			"Ich bin orange und habe Streifen.",
			"Ich esse für mein Leben gern Lasagne.",
			"Ich wohne mit einem dummen Hund namens Odie in einem Haus.",
			"Mein Erfinder heißt Jim Davis. "
		]
    },
	{
        "answers": [
            "hexe",
			"die hexe",
			"eine hexe"
],
        "hints": [
            "Ich bin kein Tier.",
            "Ich bin kein Mensch.",
            "Ich bin auch keine Maschine.",
			"Ich liebe Katzen.",
			"Ich kann fliegen.",
			"Vor mir haben viele Angst.",
			"Ich bin etwas krüppelig.",
			"Ich habe einen Hut auf.",
			"Ich habe einen Besen.",
			"Ich kann hexen. "
		]
    },
	{
        "answers": [
            "schmetterling",
			"ein schmetterling"
],
        "hints": [
            "Ich liebe die Natur.",
            "Ich bin ein Tier.",
            "Man sieht mich oft im Frühling und im Sommer.",
			"Ich habe Flügel.",
			"Ich kann fliegen.",
			"Ich mag Blumen.",
			"Ich flattere gerne durch die Gegend.",
			"Mich gibt es in unterschiedlichen Farben.",
			"Ich habe viele tolle Muster.",
			"Ich entstehe aus einer Raupe heraus. "
		]
    },
	{
        "answers": [
            "kinderwagen",
			"der kinderwagen",
			"ein kinderwagen"
],
        "hints": [
            "Ich bin kein Tier.",
            "Mich nutzt man zum Transportieren.",
            "Ich habe vier Räder.",
			"Ich habe keinen Motor.",
			"Mich gibt es in unterschiedlichen Farben.",
			"Ich habe vorne einen Griff.",
			"Ich bin in etwa so groß wie zwei Sporttaschen.",
			"Ich habe einen Wind-­ und Sonnenschutz.",
			"Gerade junge Eltern brauchen mich.",
			"In mir liegen kleine Kinder. "
		]
    },
	{
        "answers": [
            "pferd",
			"das pferd",
			"ein pferd"
],
        "hints": [
            "Ich bin kein Mensch.",
            "Mich mögen die meisten Menschen aber sehr gerne.",
            "Ich habe ein Fell.",
			"Und vier Beine.",
			"Ich kann schnell laufen.",
			"Mich gibt es in groß und klein.",
			"Manche Menschen üben mit mir eine Sportart aus.",
			"Mich putzen die Menschen auch.",
			"Wenn ich nicht mag, das ist der Hufschmied.",
			"Und ich habe eine Mähne. "
		]
    },
	{
        "answers": [
            "fallschirmspringer",
			"der fallschirmspringer",
			"ein fallschirmspringer",
			"fallschirmspringerin",
			"die fallschirmspringerin",
			"eine fallschirmspringerin"
],
    "hints": [
      "Ich bin ein Mensch.",
      "Ich habe ein ganz besonderes Hobby.",
      "Dies kann nur bei gutem Wetter ausgeübt werden.",
      "Mein Hobby ist schon sehr teuer.",
      "Es hat nichts mit Tieren zu tun.",
      "Auch nichts mit Motoren.",
      "Ich fühle mich oft frei wie ein Vogel.",
      "Ich benötige für meinen Sport ein Flugzeug.",
      "Mein Hobby hat etwas mit „Springen“ zu tun.",
      "Aber ich habe etwas, dass mich zum Glück auffängt. "
    ]
    },
	{
        "answers": [
            "eiskunstläuferin",
			"die eiskunstläuferin",
			"eine eiskunstläuferin",
			"eiskunstläufer",
			"der eiskunstläufer",
			"ein eiskunstläufer"
],
        "hints": [
            "Ich bin kein Tier.",
            "Ich sehe immer hübsch aus.",
            "Ich bin sehr sportlich.",
			"Ich muss sehr viel trainieren.",
			"Ich liebe den Winter.",
			"Ich mag glattes Eis.",
			"Meine Sportart nimmt an Olympia teil.",
			"Ich mache Kunststücke.",
			"Ich laufe alleine, mit einem Partner oder einer Partnerin.",
			"Ich habe Schlittschuhe an. "
		]
    },
	{
        "answers": [
            "besen",
			"ein besen",
			"der besen"
],
        "hints": [
            "Ich bin kein Tier.",
            "Ich bin kein Mensch.",
            "Die Menschen brauchen mich aber.",
			"Ich sorge für Ordnung.",
			"Die Abstellkammer ist mein zu Hause.",
			"Mich gibt es in verschiedenen Farben.",
			"Ich bin oft aus Holz.",
			"Ich habe Borsten.",
			"Ich habe einen langen Stiel.",
			"Mit mir fegen die Menschen Dreck weg. "
		]
    },
	{
        "answers": [
            "detektiv",
			"der detektiv",
			"ein detektiv"
],
        "hints": [
            "Ich bin kein Tier.",
            "Ich übe einen Beruf aus.",
            "Ich sitze nicht im Büro.",
			"Ich muss auch keine schweren Dinge tragen.",
			"Ich bin sehr schlau.",
			"Ich sehe Dinge, die viele andere nicht sehen.",
			"Ich werde vor allem in Einkaufsläden benötigt.",
			"Ich verhalte mich sehr unauffällig.",
			"Ich beobachte Leute.",
			"Häufig wird mit mir eine Lupe in Verbindung gebracht. "
		]
    },
	{
        "answers": [
            "flugzeug",
			"ein flugzeug",
			"das flugzeug"
],
        "hints": [
            "Ich liebe das Fliegen.",
            "Ich bin kein Tier.",
            "Ich bin kein Mensch.",
			"Ich habe Fenster.",
			"Ich mache viel Lärm.",
			"Mich findet man auf einem Flughafen.",
			"Ich bin ziemlich groß.",
			"Ich bin kein Hubschrauber.",
			"Ich transportiere Menschen.",
			"Ich bringe viele Menschen zu den Urlaubsorten. "
		]
    },
	{
        "answers": [
            "wasserhahn",
			"ein wasserhahn",
			"der wasserhahn"
],
        "hints": [
            "Ich bin kein Tier.",
            "Ich bin wichtig für die Menschen.",
            "Mich benötigen die Menschen mehrmals am Tag.",
			"Oft bin ich Silberfarben.",
			"Mich gibt es in allen Ländern der Welt.",
			"Mich kann man auf und zu drehen.",
			"Mich findest du oft im Bad und in der Küche.",
			"Aus mir kann es kalt und warm kommen.",
			"Manchmal tropft es aus mir.",
			"Aus mir fließt Wasser. "
		]
    },
	{
        "answers": [
            "hufeisen",
			"das hufeisen",
			"ein hufeisen"
],
        "hints": [
            "Ich bin gar nicht mal so groß.",
            "Ich bin kein Mensch.",
            "Aber auch kein Tier.",
			"Aber ich helfe einem bestimmten Tier.",
			"Ich bin sehr hart.",
			"Und muss eine Menge Gewicht aushalten.",
			"Ich bin weder Kreis noch habe ich Ecken.",
			"Mich gibt es vier Mal.",
			"Und ich liebe die Pferde.",
			"Und mir hilft der Schmied. "
		]
    },
	{
        "answers": [
            "ritter",
			"der ritter",
			"ein ritter"
],
    "hints": [
      "Ich habe vor langer Zeit gelebt.",
      "Ich liebe Pferde.",
      "Ich trage einen Helm.",
      "Wir haben damals an Turnieren teilgenommen.",
      "Es gabt zu meiner Zeit viele Schlachten.",
      "Ich habe in einer Burg gelebt.",
      "Für den König habe ich gedient.",
      "Ich trage ein Schild.",
      "Und ein Schwert.",
      "Und natürlich eine Rüstung. "
    ]
    },
	{
        "answers": [
            "taxi",
			"das taxi",
			"ein taxi"
],
        "hints": [
            "Ich bin kein Tier.",
            "Ein Mensch bin ich auch nicht.",
            "Ich helfe aber Menschen.",
			"Mich gibt es in verschiedenen Farben.",
			"Besonders gut für die Umwelt bin ich nicht.",
			"In mir ist es schön warm und weich.",
			"Jemand fährt mich.",
			"Ich habe vier Räder.",
			"Um mit mir zu fahren, muss man Geld bezahlen.",
			"Mein Name hat vier Buchstaben. "
		]
    },
	{
        "answers": [
            "mikrofon",
			"das mikrofon",
			"ein mikrofon"
],
        "hints": [
            "Ich bin weder Tier noch Mensch.",
            "Ich bin ein technisches Gerät.",
            "Mich gibt es mit und ohne Kabel.",
			"Oft bin ich grau oder silber.",
			"Ich werde oft auf Veranstaltungen genutzt.",
			"Ich sorge für Lautstärke.",
			"Ich bin länglich und habe einen Kopf.",
			"Manchmal quietsche ich ganz fürchterlich.",
			"Manchmal spucken mich die Leute an.",
			"In mich kann man hinein sprechen. "
		]
    },
	{
        "answers": [
            "bikini",
			"der bikini",
			"ein bikini"
],
        "hints": [
            "Ich bin kein Mensch.",
            "Ich bin kein Tier.",
            "Ich bestehe aus Stoff.",
			"Mich kann man in die Waschmaschine stecken.",
			"Ich liebe den Sommer.",
			"Mich gibt es in mehreren Farben.",
			"Oft habe ich mehrere Schleifen.",
			"Ich bestehe aus zwei Teilen.",
			"Mich kann man gut am Strand tragen.",
			"Ich werde nur von Frauen getragen. "
		]
    }
]