{
    "intents": [
        {
            "slots": [
                {
                    "name": "Sound",
                    "type": "LIST_OF_SOUNDS"
                }
            ],
            "intent": "PlayAudio"
        },
        {
            "slots": [
                {
                    "name": "Category",
                    "type": "LIST_OF_CATEGORIES"
                }
            ],
            "intent": "ListCategory"
        },
        {
            "intent": "QuitIntent"
        },
        {
            "intent": "AMAZON.PauseIntent"
        },
        {
            "intent": "AMAZON.ResumeIntent"
        },
        {
            "intent": "AMAZON.NextIntent"
        },
        {
            "intent": "AMAZON.PreviousIntent"
        },
        {
            "intent": "AMAZON.HelpIntent"
        },
        {
            "intent": "AMAZON.StopIntent"
        },
        {
            "intent": "AMAZON.CancelIntent"
        },
        {
            "intent": "AMAZON.StartOverIntent"
        },
        {
            "intent": "AMAZON.YesIntent"
        },
        {
            "intent": "AMAZON.NoIntent"
        }
    ]
}