[
    {
        "name": "Deutsche Post AG",
        "symbol": "DPW.XETRA"
    },
    {
        "name": "SAP SE",
        "symbol": "SAP.XETRA"
    },
    {
        "name": "Henkel AG & Co. KGaA",
        "symbol": "HEN3.XETRA"
    },
    {
        "name": "Continental Aktiengesellschaft",
        "symbol": "CON.XETRA"
    },
    {
        "name": "E.ON SE",
        "symbol": "EOAN.XETRA"
    },
    {
        "name": "Linde Aktiengesellschaft",
        "symbol": "LIN.XETRA"
    },
    {
        "name": "HeidelbergCement AG",
        "symbol": "HEI.XETRA"
    },
    {
        "name": "Fresenius Medical Care AG & Co.",
        "symbol": "FME.XETRA"
    },
    {
        "name": "Volkswagen AG",
        "symbol": "VOW3.XETRA"
    },
    {
        "name": "Allianz SE",
        "symbol": "ALV.XETRA"
    },
    {
        "name": "Deutsche Bank AG",
        "symbol": "DBK.XETRA"
    },
    {
        "name": "Münchener Rückversicherungs-Gesellschaft Aktiengesellschaft",
        "symbol": "MUV2.XETRA"
    },
    {
        "name": "Beiersdorf Aktiengesellschaft",
        "symbol": "BEI.XETRA"
    },
    {
        "name": "Commerzbank AG",
        "symbol": "CBK.XETRA"
    },
    {
        "name": "Fresenius SE & Co. KGaA",
        "symbol": "FRE.XETRA"
    },
    {
        "name": "Siemens Aktiengesellschaft",
        "symbol": "SIE.XETRA"
    },
    {
        "name": "ProSiebenSat.1 Media SE",
        "symbol": "PSM.XETRA"
    },
    {
        "name": "RWE AG",
        "symbol": "RWE.XETRA"
    },
    {
        "name": "thyssenkrupp AG",
        "symbol": "TKA.XETRA"
    },
    {
        "name": "Vonovia SE",
        "symbol": "VNA.XETRA"
    },
    {
        "name": "BASF SE",
        "symbol": "BAS.XETRA"
    },
    {
        "name": "Merck Kommanditgesellschaft auf Aktien",
        "symbol": "MRK.XETRA"
    },
    {
        "name": "Bayerische Motoren Werke Aktiengesellschaft",
        "symbol": "BMW.XETRA"
    },
    {
        "name": "Adidas AG",
        "symbol": "ADS.XETRA"
    },
    {
        "name": "Deutsche Lufthansa AG",
        "symbol": "LHA.XETRA"
    },
    {
        "name": "Deutsche Telekom AG",
        "symbol": "DTE.XETRA"
    },
    {
        "name": "Deutsche Boerse AG",
        "symbol": "DB1.XETRA"
    },
    {
        "name": "Bayer Aktiengesellschaft",
        "symbol": "BAYN.XETRA"
    },
    {
        "name": "Daimler AG",
        "symbol": "DAI.XETRA"
    },
    {
        "name": "Infineon Technologies AG",
        "symbol": "IFX.XETRA"
    }
]