{
  "interactionModel": {
    "languageModel": {
      "invocationName": "flunkern",
      "intents": [
        {
          "name": "AMAZON.CancelIntent",
          "samples": []
        },
        {
          "name": "AMAZON.HelpIntent",
          "samples": [
            "wie spiele ich dieses Spiel",
            "wie wird dieses spiel gespielt",
            "wie spielt man das",
            "ich brauche hilfe",
            "wie spiel ich das"
          ]
        },
        {
          "name": "AMAZON.YesIntent",
          "samples": []
        },
        {
          "name": "AMAZON.NoIntent",
          "samples": []
        },
        {
          "name": "AMAZON.StopIntent",
          "samples": []
        },
        {
          "name": "PlayerCount",
          "slots": [
            {
              "name": "players",
              "type": "AMAZON.NUMBER"
            }
          ],
          "samples": [
            "{players} spieler",
            "mit {players}",
            "es gibt {players} spieler",
            "wir sind {players} spieler",
            "wir sind zu {players}",
            "wir spielen mit {players} spielern",
            "es werden {players} spieler spielen",
            "es werden {players} spieler mitspielen",
            "einen",
            "einer",
            "ein"
          ]
        },
        {
          "name": "AnswerQuestionIntent",
          "slots": [
            {
              "name": "answers",
              "type": "answers"
            }
          ],
          "samples": [
            "das ist {answers}",
            "das ist bestimmt {answers}",
            "die antwort lautet {answers}",
            "meine antwort ist {answers}",
            "es ist {answers}",
            "es ist bestimmt {answers}",
            "ich bin mir sicher es ist {answers}",
            "es müsste {answers} sein",
            "das muss {answers} sein",
            "ich glaube es ist {answers}",
            "ich glaube es war {answers}",
            "ich glaube es müste {answers} sein",
            "ich glaube die antwort lautet {answers}",
            "ich glaube die richtige abtwort ist {answers}",
            "ich bin mir sicher es ist {answers}"
          ]
        },
        {
          "name": "AnswerOnlyIntent",
          "slots": [
            {
              "name": "answers",
              "type": "answers"
            }
          ],
          "samples": [
            "{answers}"
          ]
        },
        {
          "name": "PlayGame",
          "slots": [],
          "samples": [
            "spielen",
            "anfangen",
            "auf gehts",
            "los gehts",
            "fang an",
            "neues spiel",
            "ein spiel spielen",
            "ein neues spiel starten",
            "wir sind soweit",
            "lass uns spielen",
            "starte ein neues spiel",
            "starte ein spiel",
            "starte das spiel",
            "fang an zu spielen",
            "lass uns anfangen",
            "begin das spiel"
          ]
        },
        {
          "name": "DontKnowIntent",
          "slots": [],
          "samples": [
            "weiss ich nicht",
            "keine ahnung",
            "ich bin nicht sicher",
            "ich hab keine ahnung",
            "ich habe keine ahnung",
            "wer soll das denn wissen",
            "komm ich nicht drauf",
            "das weis doch keiner",
            "keinen schimmer",
            "blöde frage"
          ]
        },
        {
          "name": "AMAZON.MoreIntent",
          "samples": []
        },
        {
          "name": "AMAZON.NavigateHomeIntent",
          "samples": []
        },
        {
          "name": "AMAZON.NavigateSettingsIntent",
          "samples": []
        },
        {
          "name": "AMAZON.NextIntent",
          "samples": [
            "weiter",
            "überspringen",
            "eine andere frage",
            "eine neue frage",
            "andere frage",
            "neue frage",
            "andere frage",
            "nächsten frage",
            "zur nächsten frage",
            "gehe zu nächsten frage",
            "ich gebe auf",
            "wir geben auf"
          ]
        },
        {
          "name": "AMAZON.PageUpIntent",
          "samples": []
        },
        {
          "name": "AMAZON.PageDownIntent",
          "samples": []
        },
        {
          "name": "AMAZON.PreviousIntent",
          "samples": []
        },
        {
          "name": "AMAZON.ScrollRightIntent",
          "samples": []
        },
        {
          "name": "AMAZON.ScrollDownIntent",
          "samples": []
        },
        {
          "name": "AMAZON.ScrollLeftIntent",
          "samples": []
        },
        {
          "name": "AMAZON.ScrollUpIntent",
          "samples": []
        },
        {
          "name": "PlayerCountOnly",
          "slots": [
            {
              "name": "players",
              "type": "AMAZON.NUMBER"
            }
          ],
          "samples": [
            "{players}"
          ]
        }
      ],
      "types": [
        {
          "values": [
            {
              "name": {
                "value": "Richtig"
              }
            },
            {
              "name": {
                "value": "Falsch"
              }
            }
          ],
          "name": "answers"
        }
      ]
    }
  }
}
