{
  "interactionModel": {
    "languageModel": {
      "invocationName": "golden six",
      "intents": [
        {
          "name": "AMAZON.HelpIntent",
          "samples": []
        },
        {
          "name": "AMAZON.StopIntent",
          "samples": [
            "stop",
            "pause",
            "no"
          ]
        },
        {
          "name": "AMAZON.CancelIntent",
          "samples": [
            "cancel"
          ]
        },
        {
          "name": "StartSpinIntent",
          "samples": [
            "dice",
            "have a throw",
            "cut into cubes",
            "play at dice",
            "throw",
            "roll the dice",
            "start the game",
            "yes"
          ]
        },
        {
          "name": "CurrentScoreIntent",
          "samples": [
            "How many coins do I have",
            "How much money I have",
            "How is my point",
            "How many points do I have"
          ]
        },
        {
          "name": "RaiseBetIntent",
          "samples": [
            "raise",
            "raise bet",
            "increase",
            "increase bet"
          ]
        },
        {
          "name": "LowerBetIntent",
          "samples": [
            "reduce",
            "reduce bet",
            "decrease",
            "decrease bet"
          ]
        },
        {
          "name": "HighScoreIntent",
          "samples": [
            "Highscore",
            "Highscore list",
            "Read me the highscore",
            "leaderboard",
            "ranking"
          ]
        },
        {
          "name": "RoleIntent",
          "samples": [
            "rules",
            "game rules",
            "read the rules",
            "Give me the rules",
            "Give me the game rules"
          ]
        },
        {
          "name": "VerifyFirstName",
          "slots": [
            {
              "name": "firstName",
              "type": "AMAZON.US_FIRST_NAME"
            }
          ],
          "samples": [
            "{firstName}",
            "new name {firstName}",
            "change my name in {firstName}"
          ]
        },
        {
          "name": "SetFirstName",
          "samples": [
            "correct",
            "right",
            "exact",
            "true"
          ]
        },
        {
          "name": "AbortFirstName",
          "samples": [
            "new name",
            "change my name",
            "wrong",
            "incorrect",
            "false"
          ]
        },
        {
          "name": "AnonymIntent",
          "samples": [
            "anonymous"
          ]
        },
        {
          "name": "CurrentJackpotIntent",
          "samples": [
            "Jackpot",
            "what is the jackpot"
          ]
        }
      ]
    }
  }
}
